[
{
    "domain": ".reddit.com",
    "expirationDate": 1489961049.806532,
    "hostOnly": false,
    "httpOnly": true,
    "name": "__cfduid",
    "path": "/",
    "secure": false,
    "session": false,
    "storeId": "0",
    "value": "d98f514ddc0a3e2786b38352190cbdf451458425050",
    "id": 1
},
{
    "domain": ".reddit.com",
    "expirationDate": 1528236271,
    "hostOnly": false,
    "httpOnly": false,
    "name": "__utma",
    "path": "/",
    "secure": false,
    "session": false,
    "storeId": "0",
    "value": "55650728.1215255990.1458425053.1464454303.1465163876.14",
    "id": 2
},
{
    "domain": ".reddit.com",
    "expirationDate": 1465166071,
    "hostOnly": false,
    "httpOnly": false,
    "name": "__utmb",
    "path": "/",
    "secure": false,
    "session": false,
    "storeId": "0",
    "value": "55650728.0.10.1465163876",
    "id": 3
},
{
    "domain": ".reddit.com",
    "hostOnly": false,
    "httpOnly": false,
    "name": "__utmc",
    "path": "/",
    "secure": false,
    "session": true,
    "storeId": "0",
    "value": "55650728",
    "id": 4
},
{
    "domain": ".reddit.com",
    "expirationDate": 1480932271,
    "hostOnly": false,
    "httpOnly": false,
    "name": "__utmz",
    "path": "/",
    "secure": false,
    "session": false,
    "storeId": "0",
    "value": "55650728.1464302419.9.2.utmcsr=google|utmccn=(organic)|utmcmd=organic|utmctr=(not%20provided)",
    "id": 5
},
{
    "domain": ".reddit.com",
    "expirationDate": 1528236271,
    "hostOnly": false,
    "httpOnly": false,
    "name": "_ga",
    "path": "/",
    "secure": false,
    "session": false,
    "storeId": "0",
    "value": "GA1.2.1215255990.1458425053",
    "id": 6
},
{
    "domain": ".reddit.com",
    "expirationDate": 1521497048.807533,
    "hostOnly": false,
    "httpOnly": false,
    "name": "loid",
    "path": "/",
    "secure": true,
    "session": false,
    "storeId": "0",
    "value": "hyJuCyEyxcCyfag7jV",
    "id": 7
},
{
    "domain": ".reddit.com",
    "expirationDate": 1521497048.807532,
    "hostOnly": false,
    "httpOnly": false,
    "name": "loidcreated",
    "path": "/",
    "secure": true,
    "session": false,
    "storeId": "0",
    "value": "2016-03-19T22%3A04%3A10.146Z",
    "id": 8
},
{
    "domain": ".reddit.com",
    "expirationDate": 1496700271,
    "hostOnly": false,
    "httpOnly": false,
    "name": "pc",
    "path": "/",
    "secure": true,
    "session": false,
    "storeId": "0",
    "value": "6i",
    "id": 9
},
{
    "domain": ".reddit.com",
    "expirationDate": 2145916798.415354,
    "hostOnly": false,
    "httpOnly": true,
    "name": "reddit_session",
    "path": "/",
    "secure": true,
    "session": false,
    "storeId": "0",
    "value": "13395934%2C2016-03-20T00%3A38%3A24%2Ce55a896f29c6f2e8097ce26df74ac036fca3f6c8",
    "id": 10
},
{
    "domain": ".reddit.com",
    "expirationDate": 2145916798.415355,
    "hostOnly": false,
    "httpOnly": true,
    "name": "secure_session",
    "path": "/",
    "secure": false,
    "session": false,
    "storeId": "0",
    "value": "1",
    "id": 11
},
{
    "domain": "www.reddit.com",
    "expirationDate": 1779814902,
    "hostOnly": true,
    "httpOnly": false,
    "name": "_recent_srs",
    "path": "/",
    "secure": true,
    "session": false,
    "storeId": "0",
    "value": "t5_2qh03%2Ct5_2sekm%2Ct5_2qh33%2Ct5_2qhpi%2Ct5_2qo4s%2Ct5_2ssuv%2Ct5_2s7tt%2Ct5_2qh16%2Ct5_2qh13%2Ct5_2tf0a",
    "id": 12
}
]